nom;prenom;date_nais;sexe;fonction;salaire
Park;Bob;1966-10-21;M;Directeur;12512.5
Park;Hélène;1970-04-07;F;Secrétaire;8984.23
Sauvadet;Paul;1981-05-17;M;Gardien;2675.5
Remon;Gérard;1986-11-09;M;Gardien;2356.45
Denton;Luc;1971-11-07;M;Gardien;3215
Denton;Michelle;1974-06-23;F;Gardien;3075
Park;Cindy;1995-07-07;F;Gardien;1970.89
Park;Marc;1994-01-17;M;Soigneur;7502.1
Moineau;Pauline;1980-05-02;F;Soigneur;10541.25
Gretan;Ulysse;1990-03-21;M;Soigneur;8153.12
Martin;Antoine;1995-07-11;M;Livreur;1950.6
Griffit;Mélanie;1996-04-03;F;Livreur;1950.6
